…
    ## Warning: argument replace_special_characters is renamed to transliterations
    ## and will be removed in later versions

We now have a tibble with uniformly named variables.

### Question 8

The following function from the `naniar` package gives us a table of the number of missing observations per variable:

``` r
miss_var_summary(riversTibble)
```

    ## # A tibble: 31 x 4
    ##    variable   n_miss pct_miss n_miss_cumsum
    ##    <chr>       <int>    <dbl>         <int>
    ##  1 yr              0        0             0
    ##  2 businessid      0        0             0
    ##  3 wbid            0        0             0
    ##  4 water_body      0        0             0
    ##  5 wb_cls          0        0             0
    ##  6 mdnr_impsz      0        0             0
    ##  7 size            0        0             0
    ##  8 epa_apprsz      0        0             0
    ##  9 unit            0        0             0
    ## 10 pollutant       0        0             0
    ## # ... with 21 more rows

The variables `rchsmdate`, `rch_res`, and `feat_url` are all missing for every observation in the data set. There are also three other variables - `perm_id`, `date`, and `ou` - that has some missing data.

### Question 9

The `get_dupes()` function, without specifying any specific variables, will report each identical observation in the data set:

``` r
get_dupes(riversTibble)
```

    ## No variable names specified - using all columns.

    ## # A tibble: 36 x 32
    ##       yr businessid  wbid water_body wb_cls mdnr_impsz  size epa_apprsz
    ##    <int>      <int> <dbl> <chr>      <chr>       <dbl> <dbl>      <dbl>
    ##  1  2010      51730  2579 Platte R.  P             142   142        142
    ##  2  2010      51730  2579 Platte R.  P             142   142        142
    ##  3  2010      51730  2579 Platte R.  P             142   142        142
    ##  4  2010      51730  2579 Platte R.  P             142   142        142
    ##  5  2010      51730  2579 Platte R.  P             142   142        142
    ##  6  2010      51730  2579 Platte R.  P             142   142        142
    ##  7  2010      51730  2579 Platte R.  P             142   142        142
    ##  8  2010      51730  2579 Platte R.  P             142   142        142
    ##  9  2010      51730  2579 Platte R.  P             142   142        142
    ## 10  2010      51730  2579 Platte R.  P             142   142        142
    ## # ... with 26 more rows, and 24 more variables: unit <chr>,
    ## #   pollutant <chr>, source <chr>, iu <chr>, ou <chr>, up_x <dbl>,
    ## #   up_y <dbl>, dwn_x <dbl>, dwn_y <dbl>, county <chr>, wb_epa <chr>,
    ## #   comment <chr>, perm_id <chr>, date <date>, reachcode <chr>,
    ## #   rchsmdate <chr>, rch_res <chr>, src_desc <chr>, feat_url <chr>,
    ## #   fmeasure <dbl>, tmeasure <dbl>, shape_leng <dbl>, shape_le_1 <dbl>,
    ## #   dupe_count <int>

There are a total of 36 rows. We can look at the `dupe_count` variable by scrolling all the way to the right in the interactive table in our notebook. If you scan through that list of values, you'll see there 2's for each row. There are 36 rows total. Dividing the total number of rows by 2, since each row as one duplicate, gives us 18 unique observations in these 36 rows.

### Question 10

This time, we'll specify the specific variable we want to look for duplicates in. We're interested in the `perm_id` variable since it appears to be an identification number variable.

``` r
get_dupes(riversTibble, perm_id)
```

    ## # A tibble: 2,349 x 32
    ##    perm_id  dupe_count    yr businessid  wbid water_body wb_cls mdnr_impsz
    ##    <chr>         <int> <int>      <int> <dbl> <chr>      <chr>       <dbl>
    ##  1 {0034FF…          3  2006      51618  3188 N. Fk. Sp… C            1.10
    ##  2 {0034FF…          3  2008      51620  3188 N. Fk. Sp… C           55.9 
    ##  3 {0034FF…          3  2006      51619  3188 N. Fk. Sp… C           55.9 
    ##  4 {00B100…          2  2008      51018  2755 W. Fk. Bl… P            2.10
    ##  5 {00B100…          2  2008      51770  2755 W. Fk. Bl… P            2.10
    ##  6 {0145F6…          2  2006      51487   623 L. Medici… P           19.8 
    ##  7 {0145F6…          2  2006      51486   623 L. Medici… P           39.8 
    ##  8 {019A32…          4  2006      51548  2080 Big R.     P           52.8 
    ##  9 {019A32…          4  2010      55224  2080 Big R.     P           52.3 
    ## 10 {019A32…          4  2014      62493  2080 Big R.     P           52.3 
    ## # ... with 2,339 more rows, and 24 more variables: size <dbl>,
    ## #   epa_apprsz <dbl>, unit <chr>, pollutant <chr>, source <chr>, iu <chr>,
    ## #   ou <chr>, up_x <dbl>, up_y <dbl>, dwn_x <dbl>, dwn_y <dbl>,
    ## #   county <chr>, wb_epa <chr>, comment <chr>, date <date>,
    ## #   reachcode <chr>, rchsmdate <chr>, rch_res <chr>, src_desc <chr>,
    ## #   feat_url <chr>, fmeasure <dbl>, tmeasure <dbl>, shape_leng <dbl>,
    ## #   shape_le_1 <dbl>
…
